﻿1|2522390791||2531410791|Brinco|6| R$ 20,00 |D|21||Morana|322|||
2|1700474181|1700474181|1700474181|Colar|8,97| R$ 29,90 |D|26||Milano|164|||
3|2116611464|2116611464|2116611464|Brinco|8,97| R$ 29,90 |G|26||Milano|184|||
4|2313764111|2313764111|2313764111|Brinco|8,97| R$ 29,90 |D|26||Milano|70|||
5|2916504114||2982834114|Brinco|8,97| R$ 29,90 |G|26||Morana|323|||
6|2977681472|2980851471|2982821472|Brinco|8,97| R$ 29,90 |P|24||Morana|324|||
7|2979420101||2982810101|Brinco|8,97| R$ 29,90 |D|21||Morana|325|||
8|3621384112||3638824112|Anel|8,97| R$ 29,90 |P|27||Morana|326|||
9|3635010791|3638670791|3638830791|Anel|8,97| R$ 29,90 |D|22||Morana|327|||
10|3635030791|3638650791|3638840791|Anel|8,97| R$ 29,90 |D|26||Morana|328|||
11|1529201552|1529511552|1529751552|Colar|11,97| R$ 39,90 |P|23||Morana|329|||
12|1924380022|1926500022|1927280022|Colar|11,97| R$ 39,90 |P|23||Morana|330|||
13|2116621461|2116621461|2116621461|Brinco|11,97| R$ 39,90 |D|26||Milano|186|||
14|2116621462|2116621462|2116621462|Brinco|11,97| R$ 39,90 |P|26||Milano|189|||
15|2313784112|2313784112|2313784112|Brinco|11,97| R$ 39,90 |P|26||Milano|80|||
16|2661196233|2661196233|2661196233|Brinco|11,97| R$ 39,90 |D|26||Milano|180|||
17|2915731492||2982861492|Brinco|11,97| R$ 39,90 |P|26||Morana|331|||
18|2969436141|2969436141|2969436141|Brinco|11,97| R$ 39,90 |D|26||Milano|178|||
19|2975830022|2980830022|2982850022|Brinco|11,97| R$ 39,90 |P|26||Morana|332|||
20|2978390532||2982840532|Brinco|11,97| R$ 39,90 |P|26||Morana|333|||
21|3635294141||3638854141|Anel|11,97| R$ 39,90 |D|25||Morana|334|||
22|3635094114||3639004114|Anel|13,5| R$ 45,00 |G|26||Morana|335|||
23|1404890791|1405930791|1405990791|Colar|14,97| R$ 49,90 |D|23||Morana|336|||
24|1924704114||1927334114|Colar|14,97| R$ 49,90 |G|21||Morana|337|||
25|1924941472|1926511472|1927291472|Colar|14,97| R$ 49,90 |P|26||Morana|338|||
26|2520871491|2530911491|2531431491|Brinco|14,97| R$ 49,90 |D|26||Morana|339|||
27|2522680791|2531100791|2531440791|Brinco|14,97| R$ 49,90 |D|22||Morana|340|||
28|2970841491||2982871491|Brinco|14,97| R$ 49,90 |D|26||Morana|341|||
29|5620491952||5622221952|Pulseira|14,97| R$ 49,90 |P|21||Morana|342|||
30|5740990104||5741580104|Pulseira|14,97| R$ 49,90 |G|21||Morana|343|||
31|5741224181||5741594181|Pulseira|14,97| R$ 49,90 |D|21||Morana|344|||
32|5803870792||5804380792|Pulseira|14,97| R$ 49,90 |P|26||Morana|345|||
33|2792201502||2982881502|Brinco|17,97| R$ 59,00 |P|21||Morana|346|||
34|1156431551||1161741551|Colar|17,97| R$ 59,90 |D|21||Morana|347|||
35|1529490104||1529760104|Colar|17,97| R$ 59,90 |G|21||Morana|348|||
36|1649764181||1650384181|Colar|17,97| R$ 59,90 |D|21||Morana|349|||
37|1920601491||1927301491|Colar|17,97| R$ 59,90 |D|21||Morana|350|||
38|2970331503||2982891503|Brinco|17,97| R$ 59,90 |P|21||Morana|351|||
39|5621964112||5622234112|Pulseira|17,97| R$ 59,90 |P|21||Morana|352|||
40|1919834111||1927594111|Colar|17,97| R$ 59,90 |D|21||Morana|353|||
41|5404894181||5410854181|Pulseira|17,97| R$ 59,90 |D|26||Morana|354|||
42|1405070792|1405920792|1406000792|Colar|20,97| R$ 69,90 |P|27||Morana|355|||
43|1648421491||1650391491|Colar|20,97| R$ 69,90 |D|21||Morana|356|||
44|1648421492||1650391492|Colar|20,97| R$ 69,90 |P|26||Morana|357|||
45|1922801491|1922801491|1922801491|Colar|20,97| R$ 69,90 |D|26||Milano|206|||
46|2313804112|2313804112|2313804112|Brinco|20,97| R$ 69,90 |P|26||Milano|72|||
47|2964521501|2980861501|2982921501|Brinco|20,97| R$ 69,90 |D|29||Morana|358|||
48|2978721491||2982911491|Brinco|20,97| R$ 69,90 |D|21||Morana|359|||
49|2980114112||2982934112|Brinco|20,97| R$ 69,90 |P|21||Morana|360|||
50|5621141951||5622241951|Pulseira|20,97| R$ 69,90 |D|21||Morana|361|||
51|1922731491||1927601491|Colar|20,97| R$ 69,90 |D|26||Milano|139|||
52|1161214112||1161754112|Colar|23,97| R$ 79,90 |P|21||Morana|362|||
53|1648431493||1650401493|Colar|23,97| R$ 79,90 |P|21||Morana|363|||
54|1920021492|1926541492|1927611492|Colar|23,97| R$ 79,90 |P|24||Morana|364|||
55|1800221501||1800241501|Colar|23,97| R$ 79,90 |D|26||Milano|141|||
56|1925731491||1927311491|Colar|26,97| R$ 89,90 |D|19||Morana|365|||
57|1920041492|1926551492|1927621492|Colar|26,97| R$ 89,90 |P|28||Morana|366|||
58|5502284152||5502444152|Tornozeleira|8,97| R$ 29,90 |P|26||Morana|367|||
59|3912421953||3917521953|Anel|11,97| R$ 39,00 |P|26||Morana|368|||
60|5214784182||5214954182|Pulseira|11,97| R$ 39,90 |P|26||Morana|369|||